<?xml version="1.0" encoding="UTF-8"?>
<!-- Do not edit this file with editors other than diagrams.net -->
<!DOCTYPE svg PUBLIC "-//W3C//DTD SVG 1.1//EN" "http://www.w3.org/Graphics/SVG/1.1/DTD/svg11.dtd">
<svg xmlns="http://www.w3.org/2000/svg" xmlns:xlink="http://www.w3.org/1999/xlink" version="1.1" width="1px" height="1px" viewBox="-0.5 -0.5 1 1" content="&lt;mxfile host=&quot;app.diagrams.net&quot; modified=&quot;2021-10-01T14:12:35.742Z&quot; agent=&quot;5.0 (Macintosh)&quot; version=&quot;15.4.1&quot; etag=&quot;OI5bu2FvY-iRcFrqfai7&quot; type=&quot;gitlab&quot;&gt;&lt;diagram id=&quot;usFXNOnHTP5AwKdBtbWe&quot;&gt;UzV2zq1wL0osyPDNT0nNUTV2VTV2LsrPL4GwciucU3NyVI0MMlNUjV1UjYwMgFjVyA2HrCFY1qAgsSg1rwSLBiADYTaQg2Y1AA==&lt;/diagram&gt;&lt;/mxfile&gt;" resource="https://app.diagrams.net/#AAlexandreFaltot%2Fippon-meteo%2Fmaster%2Fgit.drawio.svg"><defs/><g/></svg>